commit 993eac245fd1bf7086e01096a6e0d261a3ea5b10
Author: ibrahim elsayegh <ibrahim.sayegh@std.balamand.edu.lb>
Date:   Mon Mar 28 23:40:33 2022 +0300

    q7-8

commit ec829b88c7277b0110eceeeb995acf91c652ff24
Author: ibrahim elsayegh <ibrahim.sayegh@std.balamand.edu.lb>
Date:   Mon Mar 28 23:33:11 2022 +0300

    q4

commit 64dae9b357897f0789d26b070b5500ce8d32f214
Author: ibrahim elsayegh <ibrahim.sayegh@std.balamand.edu.lb>
Date:   Mon Mar 28 23:17:24 2022 +0300

    q1
